Hands-on Exercise 1 – ISSS626-Geospatial-zytan
…
ℹ Use `spec()` to retrieve the full column specification for this data.
ℹ Specify the column types or set `show_col_types = FALSE` to quiet this message.

Previously, we used glimpse() to view our object which showed both attribute values and their data types.

However, when we first import a CSV, it is not yet a spatial object. list() will allows use to view the object’s contents or structure in R’s base style. We can later apply glimpse() once the data is prepared for further analysis.

list(listings) 

[[1]]
# A tibble: 3,659 × 79
       id listing_url            scrape_id last_scraped source name  description
    <dbl> <chr>                      <dbl> <date>       <chr>  <chr> <chr>      
 1  71609 https://www.airbnb.co…   2.03e13 2025-06-26   city … Ensu… For 3 room…
 2  71896 https://www.airbnb.co…   2.03e13 2025-06-27   previ… B&B … <NA>       
 3  71903 https://www.airbnb.co…   2.03e13 2025-06-27   city … Room… Like your …
 4 275343 https://www.airbnb.co…   2.03e13 2025-06-26   previ… 10mi… **IMPORTAN…
 5 275344 https://www.airbnb.co…   2.03e13 2025-06-27   previ… 15 m… Lovely hom…
 6 294281 https://www.airbnb.co…   2.03e13 2025-06-30   city … 5 mi… I have 3 b…
 7 324945 https://www.airbnb.co…   2.03e13 2025-06-27   previ… Comf… **IMPORTAN…
 8 330095 https://www.airbnb.co…   2.03e13 2025-06-27   previ… Rela… **IMPORTAN…
 9 344803 https://www.airbnb.co…   2.03e13 2025-06-25   city … Budg… Direct bus…
10 369141 https://www.airbnb.co…   2.03e13 2025-06-26   city … 5min… A room in …
# ℹ 3,649 more rows
# ℹ 72 more variables: neighborhood_overview <chr>, picture_url <chr>,
#   host_id <dbl>, host_url <chr>, host_name <chr>, host_since <date>,
#   host_location <chr>, host_about <chr>, host_response_time <chr>,
#   host_response_rate <chr>, host_acceptance_rate <chr>,
#   host_is_superhost <lgl>, host_thumbnail_url <chr>, host_picture_url <chr>,
#   host_neighbourhood <chr>, host_listings_count <dbl>, …
…
